<?xml version="1.0" encoding="UTF-8"?>

<OAI-PMH xmlns="http://www.openarchives.org/OAI/2.0/" xmlns:xsi="http://www.w3.org/2001/XMLSchema-instance" xsi:schemaLocation="http://www.openarchives.org/OAI/2.0/ http://www.openarchives.org/OAI/2.0/OAI-PMH.xsd">

<responseDate>2010-01-11T18:08:43Z</responseDate>
<request verb="ListIdentifiers" metadataPrefix="ivo_vor" set="ivoa_publishers">http://rofr.ivoa.net/cgi-bin/oai.pl</request>

<ListIdentifiers>
<header>
<identifier>ivo://nasa.heasarc/heasarc.xml</identifier>
<datestamp>2007-05-18T00:00:00Z</datestamp>
<setSpec>Registry:Publishers</setSpec>
<setSpec>ivoa_publishers</setSpec>
</header>
<header>
<identifier>ivo://CDS.VizieR/registry</identifier>
<datestamp>2008-02-19T06:00:00Z</datestamp>
<setSpec>Registry:Publishers</setSpec>
<setSpec>ivoa_publishers</setSpec>
</header>
<header>
<identifier>ivo://nvo.caltech/registry</identifier>
<datestamp>2005-01-07T09:00:00Z</datestamp>
<setSpec>Registry:Publishers</setSpec>
<setSpec>ivoa_publishers</setSpec>
</header>
<header>
<identifier>ivo://obspm.fr/org.astrogrid.registry.RegistryService</identifier>
<datestamp>2008-05-19T16:17:03Z</datestamp>
<setSpec>Registry:Publishers</setSpec>
<setSpec>ivoa_publishers</setSpec>
</header>
<header>
<identifier>ivo://wfau.roe.ac.uk/org.astrogrid.registry.RegistryService</identifier>
<datestamp>2008-02-15T13:32:02Z</datestamp>
<setSpec>Registry:Publishers</setSpec>
<setSpec>ivoa_publishers</setSpec>
</header>
<header>
<identifier>ivo://uk.ac.le.star/org.astrogrid.registry.RegistryService</identifier>
<datestamp>2007-10-10T15:57:21Z</datestamp>
<setSpec>Registry:Publishers</setSpec>
<setSpec>ivoa_publishers</setSpec>
</header>
<header>
<identifier>ivo://nvo.ncsa/registry</identifier>
<datestamp>2007-04-11T08:52:38Z</datestamp>
<setSpec>Registry:Publishers</setSpec>
<setSpec>ivoa_publishers</setSpec>
</header>
<header>
<identifier>ivo://sao.ru/org.astrogrid.registry.RegistryService</identifier>
<datestamp>2009-09-23T12:26:31Z</datestamp>
<setSpec>Registry:Publishers</setSpec>
<setSpec>ivoa_publishers</setSpec>
</header>
<header>
<identifier>ivo://jvo/publishingregistry</identifier>
<datestamp>2007-12-18T00:00:00Z</datestamp>
<setSpec>Registry:Publishers</setSpec>
<setSpec>ivoa_publishers</setSpec>
</header>
<header>
<identifier>ivo://uk.ac.cam.ast/org.astrogrid.registry.RegistryService</identifier>
<datestamp>2007-12-12T16:39:39Z</datestamp>
<setSpec>Registry:Publishers</setSpec>
<setSpec>ivoa_publishers</setSpec>
</header>
<header>
<identifier>ivo://archive.stsci.edu/nvoregistry</identifier>
<datestamp>2009-06-18T03:11:05.69Z</datestamp>
<setSpec>Registry:Publishers</setSpec>
<setSpec>ivoa_publishers</setSpec>
</header>
<header>
<identifier>ivo://astronet.ru/cas/registry</identifier>
<datestamp>2006-06-16T23:19:02Z</datestamp>
<setSpec>Registry:Publishers</setSpec>
<setSpec>ivoa_publishers</setSpec>
</header>
<header>
<identifier>ivo://mssl.ucl.ac.uk/org.astrogrid.registry.RegistryService</identifier>
<datestamp>2007-01-24T15:02:29Z</datestamp>
<setSpec>Registry:Publishers</setSpec>
<setSpec>ivoa_publishers</setSpec>
</header>
<header status='deleted'>
<identifier>ivo://org.gavo.dc/static/registryrecs/registry.rr</identifier>
<datestamp>2009-02-24T09:40:43Z</datestamp>
<setSpec>Registry:Publishers</setSpec>
<setSpec>ivoa_publishers</setSpec>
</header>
<header status='other'>
<identifier>ivo://esavo/registry</identifier>
<datestamp>2009-03-09T12:00:00Z</datestamp>
<setSpec>Registry:Publishers</setSpec>
<setSpec>ivoa_publishers</setSpec>
</header>
<header>
<identifier>ivo://ivoa.net/rofr</identifier>
<datestamp>2008-02-27T22:35:33Z</datestamp>
<setSpec>Registry:RofR</setSpec>
<setSpec>ivo_managed</setSpec>
<setSpec>ivoa_publishers</setSpec>
</header>
<resumptionToken cursor="0" completeListSize="16"></resumptionToken>
</ListIdentifiers>

</OAI-PMH>
